…
data_model<-full_data_set_clean %>% 
  filter(year_built>=1930) %>%
  select(-c(property_id,seller,buyer)) %>%
  na.omit() 
```

``` r
data_model%>%
  group_by(lender) %>%
  count(sort = T)%>%
  filter(n>30)
```

    ## # A tibble: 36 × 2
    ## # Groups:   lender [36]
    ##    lender                          n
    ##    <chr>                       <int>
    ##  1 " Udislosed"                 9504
    ##  2 "OTHER INSTITUTIONAL LENDE"   615
    ##  3 "Ahor"                        552
    ##  4 "LedigHome"                   348
    ##  5 "5 Arh"                       230
    ##  6 "Wells Fargo"                 223
    ##  7 "Geesis"                      106
    ##  8 "Pivoal"                      106
    ##  9 "Civi"                         99
    ## 10 " OTHER INSTITUTIONAL LEN"     81
    ## # … with 26 more rows
…
