…
``` r
xg_tune %>%
  collect_metrics() %>%
  arrange(mean)
```

    ## # A tibble: 312 × 9
    ##     mtry trees learn_rate .metric .estimator  mean     n std_err .config        
    ##    <dbl> <dbl>      <dbl> <chr>   <chr>      <dbl> <int>   <dbl> <chr>          
    ##  1    10  1500       0.01 rmse    standard   0.607    10  0.0200 Preprocessor1_…
    ##  2    10  1450       0.01 rmse    standard   0.607    10  0.0201 Preprocessor1_…
    ##  3    10  1400       0.01 rmse    standard   0.607    10  0.0201 Preprocessor1_…
    ##  4    10  1350       0.01 rmse    standard   0.607    10  0.0201 Preprocessor1_…
    ##  5    10  1300       0.01 rmse    standard   0.607    10  0.0201 Preprocessor1_…
    ##  6    10  1250       0.01 rmse    standard   0.607    10  0.0202 Preprocessor1_…
    ##  7    10  1200       0.01 rmse    standard   0.607    10  0.0202 Preprocessor1_…
    ##  8     7  1500       0.01 rmse    standard   0.607    10  0.0200 Preprocessor1_…
    ##  9    10  1150       0.01 rmse    standard   0.607    10  0.0202 Preprocessor1_…
    ## 10     7  1450       0.01 rmse    standard   0.607    10  0.0200 Preprocessor1_…
    ## # … with 302 more rows
…
